2014-04-06 12:55:26: ----- ：任务 'Pokemon Web Server'：计算机 'Lingtian's MacBook' 上的分析操作已由 User 所启动 (GoodSync v 4.0.0.0) -----
2014-04-06 12:55:26: /Users/Vivid/Documents/Programming/Git <-> ftp://ftp.hflsadmission.com/www/pokeface
2014-04-06 12:55:26: 左侧：文件： 773 (已排除 11)。文件夹： 120 (已排除 1)。 /dev/disk0s2 HFS, 可用空间：56648M，总计空间：250140M
2014-04-06 12:55:57: 右侧：文件： 728 (已排除 0)。文件夹： 89 (已排除 1)。 FTP: --------- Welcome to Pure-FTPd [privsep] [TLS] ----------You are user number 14 of 150 allowed.Local time is now 15:55. Server p ...
2014-04-06 12:55:57: 变更：88， 冲突：0， 复制时间：0， 复制状态：0/0， 错误： 0
2014-04-06 12:55:57: Left to Right: Copy File: 88 
2014-04-06 12:55:57: ----- ：分析已结束。 历时 00:00:31， 速度： 29 个文件/秒 -----
2014-04-06 12:55:57: 
2014-04-06 12:56:39: ===== ：任务 'Pokemon Web Server'：同步已被 User 所启动，位于计算机 'Lingtian's MacBook' =====
2014-04-06 12:56:39: /Users/Vivid/Documents/Programming/Git <-> ftp://ftp.hflsadmission.com/www/pokeface
2014-04-06 12:56:40: 创建文件夹 'ftp://ftp.hflsadmission.com/www/pokeface/.git/objects/00'
2014-04-06 12:56:40: 创建文件夹 'ftp://ftp.hflsadmission.com/www/pokeface/.git/objects/02'
2014-04-06 12:56:40: 创建文件夹 'ftp://ftp.hflsadmission.com/www/pokeface/.git/objects/08'
2014-04-06 12:56:41: 创建文件夹 'ftp://ftp.hflsadmission.com/www/pokeface/.git/objects/0b'
2014-04-06 12:56:41: 创建文件夹 'ftp://ftp.hflsadmission.com/www/pokeface/.git/objects/10'
2014-04-06 12:56:41: 创建文件夹 'ftp://ftp.hflsadmission.com/www/pokeface/.git/objects/1a'
2014-04-06 12:56:41: 创建文件夹 'ftp://ftp.hflsadmission.com/www/pokeface/.git/objects/1b'
2014-04-06 12:56:41: 创建文件夹 'ftp://ftp.hflsadmission.com/www/pokeface/.git/objects/1d'
2014-04-06 12:56:41: 创建文件夹 'ftp://ftp.hflsadmission.com/www/pokeface/.git/objects/1f'
2014-04-06 12:56:41: 创建文件夹 'ftp://ftp.hflsadmission.com/www/pokeface/.git/objects/33'
2014-04-06 12:56:41: 创建文件夹 'ftp://ftp.hflsadmission.com/www/pokeface/.git/objects/36'
2014-04-06 12:56:41: 创建文件夹 'ftp://ftp.hflsadmission.com/www/pokeface/.git/objects/39'
2014-04-06 12:56:41: 创建文件夹 'ftp://ftp.hflsadmission.com/www/pokeface/.git/objects/3a'
2014-04-06 12:56:42: 创建文件夹 'ftp://ftp.hflsadmission.com/www/pokeface/.git/objects/49'
2014-04-06 12:56:42: 创建文件夹 'ftp://ftp.hflsadmission.com/www/pokeface/.git/objects/5d'
2014-04-06 12:56:42: 创建文件夹 'ftp://ftp.hflsadmission.com/www/pokeface/.git/objects/6e'
2014-04-06 12:56:42: 创建文件夹 'ftp://ftp.hflsadmission.com/www/pokeface/.git/objects/79'
2014-04-06 12:56:42: 创建文件夹 'ftp://ftp.hflsadmission.com/www/pokeface/.git/objects/7d'
2014-04-06 12:56:42: 创建文件夹 'ftp://ftp.hflsadmission.com/www/pokeface/.git/objects/97'
2014-04-06 12:56:42: 创建文件夹 'ftp://ftp.hflsadmission.com/www/pokeface/.git/objects/9a'
2014-04-06 12:56:42: 创建文件夹 'ftp://ftp.hflsadmission.com/www/pokeface/.git/objects/a3'
2014-04-06 12:56:42: 创建文件夹 'ftp://ftp.hflsadmission.com/www/pokeface/.git/objects/a9'
2014-04-06 12:56:42: 创建文件夹 'ftp://ftp.hflsadmission.com/www/pokeface/.git/objects/aa'
2014-04-06 12:56:42: 创建文件夹 'ftp://ftp.hflsadmission.com/www/pokeface/.git/objects/b1'
2014-04-06 12:56:43: 创建文件夹 'ftp://ftp.hflsadmission.com/www/pokeface/.git/objects/b8'
2014-04-06 12:56:43: 创建文件夹 'ftp://ftp.hflsadmission.com/www/pokeface/.git/objects/bd'
2014-04-06 12:56:43: 创建文件夹 'ftp://ftp.hflsadmission.com/www/pokeface/.git/objects/c4'
2014-04-06 12:56:43: 创建文件夹 'ftp://ftp.hflsadmission.com/www/pokeface/.git/objects/cb'
2014-04-06 12:56:43: 创建文件夹 'ftp://ftp.hflsadmission.com/www/pokeface/.git/objects/e0'
2014-04-06 12:56:43: 创建文件夹 'ftp://ftp.hflsadmission.com/www/pokeface/.git/objects/ed'
2014-04-06 12:56:43: 创建文件夹 'ftp://ftp.hflsadmission.com/www/pokeface/.git/objects/f1'
2014-04-06 12:56:44: 覆盖复制 '/Users/Vivid/Documents/Programming/Git/.git/COMMIT_EDITMSG' -> 'ftp://ftp.hflsadmission.com/www/pokeface/.git/COMMIT_EDITMSG'
2014-04-06 12:56:45: 覆盖复制 '/Users/Vivid/Documents/Programming/Git/.git/FETCH_HEAD' -> 'ftp://ftp.hflsadmission.com/www/pokeface/.git/FETCH_HEAD'
2014-04-06 12:56:46: 覆盖复制 '/Users/Vivid/Documents/Programming/Git/.git/index' -> 'ftp://ftp.hflsadmission.com/www/pokeface/.git/index'
2014-04-06 12:56:47: 覆盖复制 '/Users/Vivid/Documents/Programming/Git/.git/logs/HEAD' -> 'ftp://ftp.hflsadmission.com/www/pokeface/.git/logs/HEAD'
2014-04-06 12:56:48: 覆盖复制 '/Users/Vivid/Documents/Programming/Git/.git/logs/refs/heads/master' -> 'ftp://ftp.hflsadmission.com/www/pokeface/.git/logs/refs/heads/master'
2014-04-06 12:56:49: 覆盖复制 '/Users/Vivid/Documents/Programming/Git/.git/logs/refs/remotes/origin/master' -> 'ftp://ftp.hflsadmission.com/www/pokeface/.git/logs/refs/remotes/origin/master'
2014-04-06 12:56:49: 新建复制 '/Users/Vivid/Documents/Programming/Git/.git/objects/00/9a8332463a28772c9dc2f8e9aba5fe7c044993' -> 'ftp://ftp.hflsadmission.com/www/pokeface/.git/objects/00/9a8332463a28772c9dc2f8e9aba5fe7c044993'
2014-04-06 12:56:50: 新建复制 '/Users/Vivid/Documents/Programming/Git/.git/objects/00/c50656394ea6f21d80667162df529654992ddb' -> 'ftp://ftp.hflsadmission.com/www/pokeface/.git/objects/00/c50656394ea6f21d80667162df529654992ddb'
2014-04-06 12:56:51: 新建复制 '/Users/Vivid/Documents/Programming/Git/.git/objects/02/7ccaaa221cc3c0c9c49fb11392aa0b07f7425b' -> 'ftp://ftp.hflsadmission.com/www/pokeface/.git/objects/02/7ccaaa221cc3c0c9c49fb11392aa0b07f7425b'
2014-04-06 12:56:52: 新建复制 '/Users/Vivid/Documents/Programming/Git/.git/objects/08/59f9f4e58894708384618e86a77949184ca765' -> 'ftp://ftp.hflsadmission.com/www/pokeface/.git/objects/08/59f9f4e58894708384618e86a77949184ca765'
2014-04-06 12:56:52: 新建复制 '/Users/Vivid/Documents/Programming/Git/.git/objects/0b/45148b5180c0344f6a90b7a0f0b3a003b2ad6c' -> 'ftp://ftp.hflsadmission.com/www/pokeface/.git/objects/0b/45148b5180c0344f6a90b7a0f0b3a003b2ad6c'
2014-04-06 12:56:53: 新建复制 '/Users/Vivid/Documents/Programming/Git/.git/objects/0b/b3333b9db0e4b826c5aeb4268bc0e71a1d8fe0' -> 'ftp://ftp.hflsadmission.com/www/pokeface/.git/objects/0b/b3333b9db0e4b826c5aeb4268bc0e71a1d8fe0'
2014-04-06 12:56:54: 新建复制 '/Users/Vivid/Documents/Programming/Git/.git/objects/10/568aca01ab48f201ea883af47524391bea590d' -> 'ftp://ftp.hflsadmission.com/www/pokeface/.git/objects/10/568aca01ab48f201ea883af47524391bea590d'
2014-04-06 12:56:54: 新建复制 '/Users/Vivid/Documents/Programming/Git/.git/objects/1a/ced142e13c5a294da62c3d192f7275c6ff5a89' -> 'ftp://ftp.hflsadmission.com/www/pokeface/.git/objects/1a/ced142e13c5a294da62c3d192f7275c6ff5a89'
2014-04-06 12:56:55: 新建复制 '/Users/Vivid/Documents/Programming/Git/.git/objects/1b/cd454e67c6200df75ce240a49461ab945eae53' -> 'ftp://ftp.hflsadmission.com/www/pokeface/.git/objects/1b/cd454e67c6200df75ce240a49461ab945eae53'
2014-04-06 12:56:56: 新建复制 '/Users/Vivid/Documents/Programming/Git/.git/objects/1d/aed7c35d69ba46e39d92f84147cb7ea3eb896d' -> 'ftp://ftp.hflsadmission.com/www/pokeface/.git/objects/1d/aed7c35d69ba46e39d92f84147cb7ea3eb896d'
2014-04-06 12:56:57: 新建复制 '/Users/Vivid/Documents/Programming/Git/.git/objects/1f/3b95039fe4137d06ae894944b5797c4d6012ed' -> 'ftp://ftp.hflsadmission.com/www/pokeface/.git/objects/1f/3b95039fe4137d06ae894944b5797c4d6012ed'
2014-04-06 12:56:57: 新建复制 '/Users/Vivid/Documents/Programming/Git/.git/objects/22/7a5e64a59f0e94dad0bd172255f515a2b7b935' -> 'ftp://ftp.hflsadmission.com/www/pokeface/.git/objects/22/7a5e64a59f0e94dad0bd172255f515a2b7b935'
2014-04-06 12:56:58: 新建复制 '/Users/Vivid/Documents/Programming/Git/.git/objects/23/cc8950422c51e36de009917678523ef46b015d' -> 'ftp://ftp.hflsadmission.com/www/pokeface/.git/objects/23/cc8950422c51e36de009917678523ef46b015d'
2014-04-06 12:56:59: 新建复制 '/Users/Vivid/Documents/Programming/Git/.git/objects/33/8aadf730d844c50c37c94a7b4ae76dca1fa14a' -> 'ftp://ftp.hflsadmission.com/www/pokeface/.git/objects/33/8aadf730d844c50c37c94a7b4ae76dca1fa14a'
2014-04-06 12:56:59: 新建复制 '/Users/Vivid/Documents/Programming/Git/.git/objects/36/7d6ee955df64e39a1113ff2f6c3b7bfa118e80' -> 'ftp://ftp.hflsadmission.com/www/pokeface/.git/objects/36/7d6ee955df64e39a1113ff2f6c3b7bfa118e80'
2014-04-06 12:57:00: 新建复制 '/Users/Vivid/Documents/Programming/Git/.git/objects/39/f3dddc1a4e4e86518a70654580f0dc4e752821' -> 'ftp://ftp.hflsadmission.com/www/pokeface/.git/objects/39/f3dddc1a4e4e86518a70654580f0dc4e752821'
2014-04-06 12:57:01: 新建复制 '/Users/Vivid/Documents/Programming/Git/.git/objects/3a/79bd974b6e175aeed967c02fbf2e604a43ecc7' -> 'ftp://ftp.hflsadmission.com/www/pokeface/.git/objects/3a/79bd974b6e175aeed967c02fbf2e604a43ecc7'
2014-04-06 12:57:01: 新建复制 '/Users/Vivid/Documents/Programming/Git/.git/objects/49/46d01d79ed4db60f4e5f4e06387e00adea20fe' -> 'ftp://ftp.hflsadmission.com/www/pokeface/.git/objects/49/46d01d79ed4db60f4e5f4e06387e00adea20fe'
2014-04-06 12:57:02: 新建复制 '/Users/Vivid/Documents/Programming/Git/.git/objects/49/f8f72d4856df1183aaec282b8f63572769abe6' -> 'ftp://ftp.hflsadmission.com/www/pokeface/.git/objects/49/f8f72d4856df1183aaec282b8f63572769abe6'
2014-04-06 12:57:03: 新建复制 '/Users/Vivid/Documents/Programming/Git/.git/objects/4a/88c2179f300bcad812de1f42eb05e2577433ba' -> 'ftp://ftp.hflsadmission.com/www/pokeface/.git/objects/4a/88c2179f300bcad812de1f42eb05e2577433ba'
2014-04-06 12:57:03: 新建复制 '/Users/Vivid/Documents/Programming/Git/.git/objects/5a/3a91fa1544a8cd43f264dcf1b99a66dfe82325' -> 'ftp://ftp.hflsadmission.com/www/pokeface/.git/objects/5a/3a91fa1544a8cd43f264dcf1b99a66dfe82325'
2014-04-06 12:57:04: 新建复制 '/Users/Vivid/Documents/Programming/Git/.git/objects/5d/46955a6b7b34f6bd09dd1edec38e3fcdae9e52' -> 'ftp://ftp.hflsadmission.com/www/pokeface/.git/objects/5d/46955a6b7b34f6bd09dd1edec38e3fcdae9e52'
2014-04-06 12:57:05: 新建复制 '/Users/Vivid/Documents/Programming/Git/.git/objects/5f/c571d23a67a849ca9d2eb8294443ea109ecfd5' -> 'ftp://ftp.hflsadmission.com/www/pokeface/.git/objects/5f/c571d23a67a849ca9d2eb8294443ea109ecfd5'
2014-04-06 12:57:05: 新建复制 '/Users/Vivid/Documents/Programming/Git/.git/objects/67/e0d0b9926df18773029354574b52ec54581aaa' -> 'ftp://ftp.hflsadmission.com/www/pokeface/.git/objects/67/e0d0b9926df18773029354574b52ec54581aaa'
2014-04-06 12:57:06: 新建复制 '/Users/Vivid/Documents/Programming/Git/.git/objects/6e/fdcca8592a558e148a0d0ab6899a36e2b4be69' -> 'ftp://ftp.hflsadmission.com/www/pokeface/.git/objects/6e/fdcca8592a558e148a0d0ab6899a36e2b4be69'
2014-04-06 12:57:07: 新建复制 '/Users/Vivid/Documents/Programming/Git/.git/objects/72/df0f4dbad365600996967d808040184426b571' -> 'ftp://ftp.hflsadmission.com/www/pokeface/.git/objects/72/df0f4dbad365600996967d808040184426b571'
2014-04-06 12:57:08: 新建复制 '/Users/Vivid/Documents/Programming/Git/.git/objects/79/bb9951ed39a63ea5b7912956c28ef0719c6ed8' -> 'ftp://ftp.hflsadmission.com/www/pokeface/.git/objects/79/bb9951ed39a63ea5b7912956c28ef0719c6ed8'
2014-04-06 12:57:08: 新建复制 '/Users/Vivid/Documents/Programming/Git/.git/objects/7d/bd6016d2daef8453b2cacba3b0b1d114bd0a0f' -> 'ftp://ftp.hflsadmission.com/www/pokeface/.git/objects/7d/bd6016d2daef8453b2cacba3b0b1d114bd0a0f'
2014-04-06 12:57:09: 新建复制 '/Users/Vivid/Documents/Programming/Git/.git/objects/91/b0a96c388339d98a156eb5ef12d5e5a8b8e980' -> 'ftp://ftp.hflsadmission.com/www/pokeface/.git/objects/91/b0a96c388339d98a156eb5ef12d5e5a8b8e980'
2014-04-06 12:57:10: 新建复制 '/Users/Vivid/Documents/Programming/Git/.git/objects/97/b83affee52c03fde7c11e4d078b171f2598786' -> 'ftp://ftp.hflsadmission.com/www/pokeface/.git/objects/97/b83affee52c03fde7c11e4d078b171f2598786'
2014-04-06 12:57:11: 新建复制 '/Users/Vivid/Documents/Programming/Git/.git/objects/9a/bc1456af86c111cb2ab536612ee90b2ecf57c1' -> 'ftp://ftp.hflsadmission.com/www/pokeface/.git/objects/9a/bc1456af86c111cb2ab536612ee90b2ecf57c1'
2014-04-06 12:57:11: 新建复制 '/Users/Vivid/Documents/Programming/Git/.git/objects/a3/b7c6feb80456e5ad30dec00014700a85b1bd21' -> 'ftp://ftp.hflsadmission.com/www/pokeface/.git/objects/a3/b7c6feb80456e5ad30dec00014700a85b1bd21'
2014-04-06 12:57:12: 新建复制 '/Users/Vivid/Documents/Programming/Git/.git/objects/a9/bbcfdf5832aaa42126ca3754b3c3c7de301131' -> 'ftp://ftp.hflsadmission.com/www/pokeface/.git/objects/a9/bbcfdf5832aaa42126ca3754b3c3c7de301131'
2014-04-06 12:57:13: 新建复制 '/Users/Vivid/Documents/Programming/Git/.git/objects/aa/3b478d67448c3ff8e290b190845c03d0549f0f' -> 'ftp://ftp.hflsadmission.com/www/pokeface/.git/objects/aa/3b478d67448c3ff8e290b190845c03d0549f0f'
2014-04-06 12:57:14: 新建复制 '/Users/Vivid/Documents/Programming/Git/.git/objects/b1/0d75dc94295de138cba3d49ff5a31726849f27' -> 'ftp://ftp.hflsadmission.com/www/pokeface/.git/objects/b1/0d75dc94295de138cba3d49ff5a31726849f27'
2014-04-06 12:57:14: 新建复制 '/Users/Vivid/Documents/Programming/Git/.git/objects/b7/302072e2c45e1d21dc333d765f597594e23597' -> 'ftp://ftp.hflsadmission.com/www/pokeface/.git/objects/b7/302072e2c45e1d21dc333d765f597594e23597'
2014-04-06 12:57:15: 新建复制 '/Users/Vivid/Documents/Programming/Git/.git/objects/b8/258cec29fc4c1fb71b927478db7947d48ea3f8' -> 'ftp://ftp.hflsadmission.com/www/pokeface/.git/objects/b8/258cec29fc4c1fb71b927478db7947d48ea3f8'
2014-04-06 12:57:16: 新建复制 '/Users/Vivid/Documents/Programming/Git/.git/objects/bb/9938ac71665e4380379e04736af94225aa7612' -> 'ftp://ftp.hflsadmission.com/www/pokeface/.git/objects/bb/9938ac71665e4380379e04736af94225aa7612'
2014-04-06 12:57:17: 新建复制 '/Users/Vivid/Documents/Programming/Git/.git/objects/bd/541413fa9a034a303fc20a26ada09d681e5ccf' -> 'ftp://ftp.hflsadmission.com/www/pokeface/.git/objects/bd/541413fa9a034a303fc20a26ada09d681e5ccf'
2014-04-06 12:57:17: 新建复制 '/Users/Vivid/Documents/Programming/Git/.git/objects/c4/b69e13a7eecc02abf16de08b692d60b20f1568' -> 'ftp://ftp.hflsadmission.com/www/pokeface/.git/objects/c4/b69e13a7eecc02abf16de08b692d60b20f1568'
2014-04-06 12:57:18: 新建复制 '/Users/Vivid/Documents/Programming/Git/.git/objects/cb/2ef67426c8ac1742fc48b34a01f8d2076a0049' -> 'ftp://ftp.hflsadmission.com/www/pokeface/.git/objects/cb/2ef67426c8ac1742fc48b34a01f8d2076a0049'
2014-04-06 12:57:19: 新建复制 '/Users/Vivid/Documents/Programming/Git/.git/objects/d5/39000efdbe727ff10c7bffdc9a72a2cb4e752a' -> 'ftp://ftp.hflsadmission.com/www/pokeface/.git/objects/d5/39000efdbe727ff10c7bffdc9a72a2cb4e752a'
2014-04-06 12:57:20: 新建复制 '/Users/Vivid/Documents/Programming/Git/.git/objects/e0/74a60c2c550323de6670f752ff6e19cd00e3d4' -> 'ftp://ftp.hflsadmission.com/www/pokeface/.git/objects/e0/74a60c2c550323de6670f752ff6e19cd00e3d4'
2014-04-06 12:57:20: 新建复制 '/Users/Vivid/Documents/Programming/Git/.git/objects/ed/5129f925bce36d74ed4129fc45d8bf050033c8' -> 'ftp://ftp.hflsadmission.com/www/pokeface/.git/objects/ed/5129f925bce36d74ed4129fc45d8bf050033c8'
2014-04-06 12:57:21: 新建复制 '/Users/Vivid/Documents/Programming/Git/.git/objects/f1/428311dc11ea1b2655aee500a4d00c9b87ef61' -> 'ftp://ftp.hflsadmission.com/www/pokeface/.git/objects/f1/428311dc11ea1b2655aee500a4d00c9b87ef61'
2014-04-06 12:57:22: 覆盖复制 '/Users/Vivid/Documents/Programming/Git/.git/ORIG_HEAD' -> 'ftp://ftp.hflsadmission.com/www/pokeface/.git/ORIG_HEAD'
2014-04-06 12:57:23: 覆盖复制 '/Users/Vivid/Documents/Programming/Git/.git/refs/heads/master' -> 'ftp://ftp.hflsadmission.com/www/pokeface/.git/refs/heads/master'
2014-04-06 12:57:24: 覆盖复制 '/Users/Vivid/Documents/Programming/Git/.git/refs/remotes/origin/master' -> 'ftp://ftp.hflsadmission.com/www/pokeface/.git/refs/remotes/origin/master'
2014-04-06 12:57:25: 覆盖复制 '/Users/Vivid/Documents/Programming/Git/index.html' -> 'ftp://ftp.hflsadmission.com/www/pokeface/index.html'
2014-04-06 12:57:26: 覆盖复制 '/Users/Vivid/Documents/Programming/Git/js/index.js' -> 'ftp://ftp.hflsadmission.com/www/pokeface/js/index.js'
2014-04-06 12:57:27: 覆盖复制 '/Users/Vivid/Documents/Programming/Git/match.js' -> 'ftp://ftp.hflsadmission.com/www/pokeface/match.js'
2014-04-06 12:57:28: 保存状态文件 ftp://ftp.hflsadmission.com/www/pokeface/_gsdata_/_file_state_v4._gs
2014-04-06 12:57:28: 项目同步未必： 88，错误： 0
2014-04-06 12:57:28: ===== ：同步完毕。时间：00:00:50，速度： 3374/s (11K/s) =====
2014-04-06 12:57:28: 
